D:\Kerjaan\karyawan\src\main\java\com\daksa\karyawan\service\UserService.java
D:\Kerjaan\karyawan\src\main\java\com\daksa\karyawan\infrastructure\json\TimestampDeserializer.java
D:\Kerjaan\karyawan\src\main\java\com\daksa\karyawan\infrastructure\persistence\JpaRepository.java
D:\Kerjaan\karyawan\src\main\java\com\daksa\karyawan\web\user\ShowUserBacking.java
D:\Kerjaan\karyawan\src\main\java\com\daksa\karyawan\entity\Ability.java
D:\Kerjaan\karyawan\src\main\java\com\daksa\karyawan\infrastructure\web\WebConfig.java
D:\Kerjaan\karyawan\src\main\java\com\daksa\karyawan\infrastructure\json\JsonMapper.java
D:\Kerjaan\karyawan\src\main\java\com\daksa\karyawan\infrastructure\json\TimestampUtil.java
D:\Kerjaan\karyawan\src\main\java\com\daksa\karyawan\web\profile\ChangePasswordBacking.java
D:\Kerjaan\karyawan\src\main\java\com\daksa\karyawan\entity\Employee.java
D:\Kerjaan\karyawan\src\main\java\com\daksa\karyawan\infrastructure\web\DataTable.java
D:\Kerjaan\karyawan\src\main\java\com\daksa\karyawan\web\auth\LoginBacking.java
D:\Kerjaan\karyawan\src\main\java\com\daksa\karyawan\infrastructure\util\EventTypeEnum.java
D:\Kerjaan\karyawan\src\main\java\com\daksa\karyawan\web\user\CreateRoleBacking.java
D:\Kerjaan\karyawan\src\main\java\com\daksa\karyawan\infrastructure\security\UserSession.java
D:\Kerjaan\karyawan\src\main\java\com\daksa\karyawan\infrastructure\security\EdelweissPassThruAuthcFilter.java
D:\Kerjaan\karyawan\src\main\java\com\daksa\karyawan\infrastructure\util\LoggingInterceptor.java
D:\Kerjaan\karyawan\src\main\java\com\daksa\karyawan\web\table\UserTable.java
D:\Kerjaan\karyawan\src\main\java\com\daksa\karyawan\infrastructure\security\EdelweissRolesAuthzFilter.java
D:\Kerjaan\karyawan\src\main\java\com\daksa\karyawan\infrastructure\security\UserInfo.java
D:\Kerjaan\karyawan\src\main\java\com\daksa\karyawan\repository\UserRepository.java
D:\Kerjaan\karyawan\src\main\java\com\daksa\karyawan\infrastructure\json\JsonDateAdapter.java
D:\Kerjaan\karyawan\src\main\java\com\daksa\karyawan\web\user\UserBacking.java
D:\Kerjaan\karyawan\src\main\java\com\daksa\karyawan\repository\AbilityRepository.java
D:\Kerjaan\karyawan\src\main\java\com\daksa\karyawan\entity\Position.java
D:\Kerjaan\karyawan\src\main\java\com\daksa\karyawan\infrastructure\persistence\PaginatedResult.java
D:\Kerjaan\karyawan\src\main\java\com\daksa\karyawan\web\employee\CreatePositionBacking.java
D:\Kerjaan\karyawan\src\main\java\com\daksa\karyawan\infrastructure\json\TimestampSerializer.java
D:\Kerjaan\karyawan\src\main\java\com\daksa\karyawan\infrastructure\persistence\PaginatedParam.java
D:\Kerjaan\karyawan\src\main\java\com\daksa\karyawan\infrastructure\web\WebResourceProducer.java
D:\Kerjaan\karyawan\src\main\java\com\daksa\karyawan\infrastructure\json\JsonTimestampAdapter.java
D:\Kerjaan\karyawan\src\main\java\com\daksa\karyawan\service\RoleService.java
D:\Kerjaan\karyawan\src\main\java\com\daksa\karyawan\repository\RoleRepository.java
D:\Kerjaan\karyawan\src\main\java\com\daksa\karyawan\infrastructure\util\ExcelRecordWrapper.java
D:\Kerjaan\karyawan\src\main\java\com\daksa\karyawan\service\CreatePositionService.java
D:\Kerjaan\karyawan\src\main\java\com\daksa\karyawan\web\user\ShowRoleBacking.java
D:\Kerjaan\karyawan\src\main\java\com\daksa\karyawan\infrastructure\util\ConfigKey.java
D:\Kerjaan\karyawan\src\main\java\com\daksa\karyawan\infrastructure\util\UUIDGenerator.java
D:\Kerjaan\karyawan\src\main\java\com\daksa\karyawan\entity\User.java
D:\Kerjaan\karyawan\src\main\java\com\daksa\karyawan\infrastructure\security\EdelweissJdbcRealm.java
D:\Kerjaan\karyawan\src\main\java\com\daksa\karyawan\infrastructure\util\Logging.java
D:\Kerjaan\karyawan\src\main\java\com\daksa\karyawan\repository\PositionRepository.java
D:\Kerjaan\karyawan\src\main\java\com\daksa\karyawan\entity\Role.java
D:\Kerjaan\karyawan\src\main\java\com\daksa\karyawan\exception\CreatePositionException.java
D:\Kerjaan\karyawan\src\main\java\com\daksa\karyawan\web\profile\UserProfileBacking.java
D:\Kerjaan\karyawan\src\main\java\com\daksa\karyawan\infrastructure\persistence\EntityManagerProducer.java
